…
``` r
pheno <-
  ds |> 
  filter(target_id == "phenology", 
         year == 2022,
         start_time > lubridate::as_datetime("2022-04-01")) |>
  collect()

pheno
```

    ## # A tibble: 129,996 × 22
    ##    target_id model_id     pub_time site_id x     y     z     time               
    ##  * <chr>     <chr>        <chr>    <chr>   <lgl> <lgl> <lgl> <dttm>             
    ##  1 phenology PEG_FUSION_0 2022-04… BART    NA    NA    NA    2022-04-02 00:00:00
    ##  2 phenology PEG_FUSION_0 2022-04… BART    NA    NA    NA    2022-04-02 00:00:00
    ##  3 phenology PEG_FUSION_0 2022-04… BART    NA    NA    NA    2022-04-03 00:00:00
    ##  4 phenology PEG_FUSION_0 2022-04… BART    NA    NA    NA    2022-04-03 00:00:00
    ##  5 phenology PEG_FUSION_0 2022-04… BART    NA    NA    NA    2022-04-04 00:00:00
    ##  6 phenology PEG_FUSION_0 2022-04… BART    NA    NA    NA    2022-04-04 00:00:00
    ##  7 phenology PEG_FUSION_0 2022-04… BART    NA    NA    NA    2022-04-05 00:00:00
    ##  8 phenology PEG_FUSION_0 2022-04… BART    NA    NA    NA    2022-04-05 00:00:00
    ##  9 phenology PEG_FUSION_0 2022-04… BART    NA    NA    NA    2022-04-06 00:00:00
    ## 10 phenology PEG_FUSION_0 2022-04… BART    NA    NA    NA    2022-04-06 00:00:00
    ## # … with 129,986 more rows, and 14 more variables: variable <chr>, mean <dbl>,
    ## #   sd <dbl>, observed <dbl>, crps <dbl>, logs <dbl>, quantile02.5 <dbl>,
    ## #   quantile10 <dbl>, quantile90 <dbl>, quantile97.5 <dbl>, interval <dbl>,
    ## #   start_time <dttm>, horizon <dbl>, year <int>
…
